{
    "KPackageStructure": "KWin/WindowSwitcher",
    "KPlugin": {
        "Authors": [
            {
                "Email": "zrenfire@gmail.com",
                "Name": "Chris Holland",
                "Name[ar]": "كريس هولاند",
                "Name[bg]": "Chris Holland",
                "Name[ca@valencia]": "Chris Holland",
                "Name[ca]": "Chris Holland",
                "Name[de]": "Chris Holland",
                "Name[es]": "Chris Holland",
                "Name[ia]": "Chris Holland",
                "Name[it]": "Chris Holland",
                "Name[ka]": "Chris Holland",
                "Name[nl]": "Chris Holland",
                "Name[sl]": "Chris Holland",
                "Name[tr]": "Chris Holland",
                "Name[uk]": "Chris Holland",
                "Name[x-test]": "xxChris Hollandxx"
            }
        ],
        "Description": "A window switcher layout using a small grid of thumbnails",
        "Description[ar]": "مخطط مبدل نوافذ يستخدم شبكة صغيرة من المصغرات",
        "Description[bg]": "Оформление на превключвател на прозорци, използващ решетка от миниатюри",
        "Description[ca@valencia]": "Una disposició del commutador de finestres que utilitza una quadrícula xicoteta de miniatures",
        "Description[ca]": "Una disposició del commutador de finestres que utilitza una quadrícula petita de miniatures",
        "Description[de]": "Ein Fensterwechsler-Layout, das ein Raster von kleinen Vorschaubildern verwendet",
        "Description[es]": "Un esquema de selector de ventanas que usa una pequeña cuadrícula de miniaturas",
        "Description[ia]": "Un disposition de commutator de fenestra usante un parve grillia de miniaturas",
        "Description[it]": "Una disposizione per il cambio finestra che utilizza una piccola griglia di miniature",
        "Description[nl]": "Een indeling van de vensterwisselaar met een klein raster van miniaturen",
        "Description[sl]": "Okenski preklopnik postavitve z uporabo majhne mreže predoglednih sličic",
        "Description[tr]": "Küçük bir küçük görsel ızgarası kullanan pencere değiştirici yerleşimi",
        "Description[uk]": "Компонування засобу перемикання вікон з малою таблицею мініатюр поточного стану вікон",
        "Description[x-test]": "xxA window switcher layout using a small grid of thumbnailsxx",
        "Icon": "preferences-system-windows-switcher-thumbnail-grid",
        "Id": "thumbnail_grid",
        "License": "GPL",
        "Name": "Thumbnail Grid",
        "Name[ar]": "شبكة المصغرات",
        "Name[bg]": "Миниатюри в решетка",
        "Name[ca@valencia]": "Quadrícula de miniatures",
        "Name[ca]": "Quadrícula de miniatures",
        "Name[de]": "Vorschaubilder-Raster",
        "Name[es]": "Cuadrícula de miniaturas",
        "Name[ia]": "Grillia de Miniatura",
        "Name[it]": "Griglia delle miniature",
        "Name[ka]": "მინიატურის ბადე",
        "Name[nl]": "Raster voor miniaturen",
        "Name[sl]": "Mreža predoglednih sličic",
        "Name[tr]": "Küçük Görsel Izgarası",
        "Name[uk]": "Таблиця мініатюр",
        "Name[x-test]": "xxThumbnail Gridxx",
        "Version": "6"
    },
    "X-Plasma-API": "declarativeappletscript",
    "X-Plasma-MainScript": "ui/main.qml"
}
